index
…
Fitting

Productivity

Field

CERC_TIME_data %>%   
  filter(trial_ID != "25-CER_TIME2") %>% 
  filter(year != 2024) %>% 
  filter(!c(field=="RRS3"&plot==201 & year==2025))

# A tibble: 161 × 20
    year trial_ID     trial  env   field  plot   blk   trt gen   fung  fung_time
   <dbl> <chr>        <chr>  <chr> <chr> <dbl> <dbl> <dbl> <chr> <chr> <chr>    
 1  2025 25-CER_TIME1 CER_T… P1C2  RRS1    101     1    14 CL111 Proz… PD42     
 2  2025 25-CER_TIME1 CER_T… P1C2  RRS1    102     1    16 CL111 Cevya PD14     
 3  2025 25-CER_TIME1 CER_T… P1C2  RRS1    103     1    13 CL111 Proz… PD35     
 4  2025 25-CER_TIME1 CER_T… P1C2  RRS1    104     1     1 CL111 _CHE… _CHECK   
 5  2025 25-CER_TIME1 CER_T… P1C2  RRS1    105     1    19 CL111 Cevya PD35     
 6  2025 25-CER_TIME1 CER_T… P1C2  RRS1    106     1    15 CL111 Cevya PD07     
 7  2025 25-CER_TIME1 CER_T… P1C2  RRS1    107     1     3 CL111 Tilt  PD07     
 8  2025 25-CER_TIME1 CER_T… P1C2  RRS1    201     1     6 CL111 Tilt  PD28     
 9  2025 25-CER_TIME1 CER_T… P1C2  RRS1    202     1    20 CL111 Cevya PD42     
10  2025 25-CER_TIME1 CER_T… P1C2  RRS1    203     1    10 CL111 Proz… PD14     
# ℹ 151 more rows
# ℹ 9 more variables: total <dbl>, head <dbl>, yld <dbl>, kg_ha <dbl>,
#   NBLS <dbl>, CPB <dbl>, n_lesion <int>, inc <dbl>, pressure <chr>
…
